09a2857ebdf2928427b672693aba9a9976856317ffa9eb71f8
ec3b6ddd23c61c6a407bff913122ace0b2f5a8ec12807c221d
cc0ae59154fce4d3b9b314e77ae69ceec3ea330ea5f43ad826
f8c9e68868714e8ebef9f95fe832f251c24beb1387e4a3cb63
3a2cdd2315833abc91b9ea56835d1d18625de0493b5f128b91
e3d4b16bb8f73419fd20ab653a1b3f97fdbd61724ea13c36f8
c5da7ec58d4a6e73a60ac982529ce16632ea41ad9e0814fc1f
5582922623c01d5c2e6d69f5430667c735084e527cfc5ee57d
683db9336b46088382eb9cc46d0205ae0df4e2e8126a0853f7
b98d2355d261945a81149fdc7835684bb7b458fc628ce178cd
ca5208320dbed6bbaacb95c1b22c83bb4bd616611b3b2758ec
a07ce02ce7849d6ad35aa935344c235909c8b2042f2c2428a9
22f204183d96e94b138f3354f53fe8439f078977990dbd5005
df9c6f9812991946308069689293f65f698ebb31d112329d43
a450bcca7daf9a345a85fe42393bd9b57eafc86f19bdc27215
e79bf54e90888553aad57a8a814ffca0f15096475bfc57f4a4
f28d94eed8629b5fa9e9422d21f42e462ea528e3cca481bd70
5c8745532f7077d13197e60ac75ba6ecb82a192daf00fda850
1a38500245d7d41cf9d2c134a77d03c57566b8eb621f4fd00f
de3356fb1435c7d55ce8a1d1035a4bacd3ea3638eab2ec99f6
7826e9f0082abe3d9aea643a17b6ba9cc2857ef14748d6c524
20d57862f6a566ccdce41a22b70fb4688c1e34cee90b71bc54
5845e18c216e8793c1394c5404cb831b0676748ce15ad97ea1
d7e81ed9ef169a7f9c5ba6dd9f885da327ce9aeab208243734
a010d424023731b88ddef954418522e564af048ec3226d5891
2fcb68e12ee747c84afeeca41d1f388e049fba9ebf71782e24
5c0c2dc4a5d5bce44d40c4ed39b46e357c8f03a190e8a8ea02
498e163f5d4c85dc6cb9f1d41dcf6c366e5c4f4ad2c6d1b4ed
9cbcea91cd068dc981642e89e99b1bdc4e300ed50dd2788d0f
e53a005b1d61b072cd258c1f0a4b8d5feaec063d01a7653237
3041e55894698682774e91570ea718e82542a41947ba23fca3
1faa7d79fbb752bb39f77eafcd9c14c34c05bd0092d8aed865
a5a6394a820bf1195cd1e6192c90d4d5e36dc2b57e6ab5073a
8484784090b7a942a31c81d583503c42ca00b8f0fca06e4f8e
141375e81189999ba9e0e0a7cb0972b4d02ce95c60927853d3
ff65d733b3f6522d7315ec144d37ef5e3da6b48217d11d624e
1d89ca66b36b1cae93ea776867a7ad8743823fd5d616591c3a
83a5d49759bdec8f4d634a0f2b3f9ac7837bae0c5a4e7de27f
6ca45a15b108ade6f3e604770e8d066958a84d995fab935f43
f7484e1567f0b996bbc6beaf69e165ab9b5f0c4c39d2e88384
