293a89206399c0e710ef5669a13eda3e985d4da7ff4d26a797
9870eff4ffd639e1ede70580d9e83a8b894923f41647599743
5d2ac2f0754fa5a7ccf0524039c22b6aa1935fe49698f9ccca
56e96e3aac981666b1154968501deed8dfd43c853f9b2b779a
b980da8870faa6c1ead721b26b75ec6603e1d172f79e420c56
086b00a0791c2b806fcdecd40b2ce2394ab58efadf692af03d
03ec76baeb59ff25b71a9ed21e7eed0de34fe3d9e57bfecedd
836fcfd8a996e0951aef3cbadb388f8a82c8d5b587bc961670
2e2ed00698877f95c503b8058743f5e883395bde840ce0beb8
4003f3d9d6ed810dd953c1d42683cb3c44c90663a41b44a6ad
1618a51fd41f6c6eb99f7ca52be7195b7c31c2155f2b9a4af7
e11a5c5da8d5a55eb2774a8e3bed57f583766485c12fc6b8fe
017723af61841fbb494574377ec3d8fe705551f2b421876d56
92701775f5b1ee20973d815500a679ec916e1cf43f4b361d67
9b07530b6566b83a47bba5ed31035904d02d98b4fab802be18
2e85579d15d429b861cf25c23a262964ac75244999af93bf13
76b808dbdfe48fa9c9ff376c61085cbf82a82c94d59f7c7dac
a2ea2fd7bbc9085939cb1240839663b4a5632ec3e1701972c4
560609646d21370178b493ff6cf1ff60a651a749de6f4d3d7f
e758807f93fc3e1e1cbae025232c64971127a522510d615215
8e814398b66aeea6a4dde48a45e067c518402b0d7099bed658
4938eb7cb566b4d77d1f142b067952b23d5583c93e6ecf4fa2
2fe18220252a4d7dfc6ae26373213c314c1e02f2aa2a25fbd0
5b8b5301115f92d2b5a0fb3a560ac6a897de0ffba94e4d4dbc
fdc3dabb15dffdc0956a868e540252a0bd72a53940700f77ab
9386f43a67c727c16947790ddcc8ac07f7036c33b30c66ef9a
52c2bc452314be59fba1a44498392d3b39b5a4356a9f28571a
8d989649809f5116412a714d45c85a2c6c2f5a19dae46b32d6
5e29d9ddd17d51687933e9740b4c41bb35f6c60943aa24b901
be42c549dbce3307b574963456798a06978bd0f9f13be05ffc
956837f937d7c8481d92cd0a8d8425dddfce30a92c64b1fdd2
bb31a0640eaaf477985f1a401fc2c48e1bc9409a6c18ed140b
b111b13ea18f66a05f53d851f221bff7de261cd19b7ccb4b4a
b99fbc969fd7926f547725a0103eafd4faa415d1baafad0af4
27b32044ede3eaae65eff2aabd2b4a4be44f1a055876e2e31b
04aa53749686ad9326c6c54ba1cf88697808bc6f30bc63859f
a9b20db760ef6770d7492e0eb445bf1a54caa24de1d06c39c9
5304cec7fd3d27f1350e41a3a22e8027f1a2402e5a2866021d
ad2be92895e2dfde9e30921b9fe8e6f5d002f4d62df709d464
a92aacbdeb59346140e3486547952d5cbb4e8b4dce09d23a2e
