47964e9f12632b21bbe2cb9921c65d0bda61d79388939ccbb5
ba875f25082efd37856be1a290ef10eceeb7768a8560b0afbe
e89b30883c595ce5f1352440b45cae110cf409e52c1e95338f
a15d06bb4b1a66a0c03a2cd112e80353c55d3e0d130d3fd7ed
50271ed445363dfd609c52514958fe126a2cb0fd267fab51cd
653f98f3f3e0b572ece2016f6482d2dff6a322cbd696215ce9
d25a861ff1abd1481070eff33ba8f056bdfb7a592d8810387a
08c822459d179f87319363cf9166984685b6df18f371e5bbb7
cb4f76613b437cd29c0125d8bd7f9ed477866ef7085be9f585
2037158e640d68c7a9d8db0b4b7ec0f20e128de51b5ae05b2a
9620d5f1ca11d0861b977acd5469f6fd0a1a242581ed4fa510
f9671d7ff2add8248da7bc8593400e0813ce9c6e22b0df378c
f96ac448012c3217d930a594d4de3cd93c999d7f25da7cc208
1704c2ec99ebd5aadd7c44616c0b1c0c151778564f908a020b
e6707e85641c45eeb6c291a25018c64800e130f5da2c8ecac8
97b5c5bc1c2e37f0809cbe1927c8d41095262944f35205f15d
6e2e2012a7cd66d6668fa9a3063149362413d9b21fbda3abd7
2dce0ee5cd5813880bbace0055301d392716cecd623a4da1ff
b6c3d5c5e1950dfcae4136ba093bf057b1c195427dd428faac
555de310529df226d1deb2feb0124c653ae3779a4c49ae7867
b3a1335e153ec5bf5eb44b1c8a41cf5a16f0f119afdf3b7caf
83e83a29a4f884387446af959f82b1bee1771afb5da928ca7a
5ab33e0ab982c4aeb88863544f7e3b1cc99f7dfddbea333404
7a792363c8ed43560dcebaf1004b3aaef6b92a4d1d4fab3f28
3122c4c9c12014afc065956fb9010a90c5160d68d950773f90
e0b32988a30453f1dddd2154060a02db60d4b0d8b3df2cd71f
054af90f88187b678a96d17e3d0eb660f6087932d7296a31b3
a20d968963fadf2b1f185d358e21dbc9b82bafe565a95d5f15
a72b4b7b595509d8879d396445d13b9f902d896cbfb9297303
7f91315093c790fd6c14f842f210e25fc98207680696d6a105
32f64302af2f2698ed83d88d597263cd9e5de9087e21bfd8d8
802afe2517bf5cb63b19d06f7105a5be0241f0822355dd8536
bcd0d38dc0faf528b005469ac62ec82ee36d048ad674198113
c1ea56b683b42824ac1075afc6c8f45b8e9cf538f51c1bddda
5fddf8b81d45748fe2519964a735fd5bc3f0a387f95dc9e16a
f2ecf3dda4c7ad0b45fbaa841221b46319666bbbf391650312
efde5bf7060d1701e6c095ae5bc71cf463b311997a935115cf
1516252849edf366ba49ce8ab5db25659b151b01a81457e3a8
17eec6da51cb646ee2b288034acd3771bcd25c134ca616660c
66aa83c7b8af157260434e67142f10dd6b8f5176bce1a3d32f
