52e34ac8dd619638d83dc2df12f5a7076632596ea4eb7b7388
c06924bac1142edfacab6ddc89438ebb0892766fcc91e67504
95fd73c736a9067883ee40f1bb3158711626b9485b0529978f
3c30943262448450fda31b24bc4295c98bb4da744c8a5d5447
96cf65f77e97d8a75c5deebb9be34c7dc51e0fcfef6c41c761
9e57149f136989a890e6cf375d22dcc7441670f9cf01e5201f
0c7f6fe5b12e4f504bb99e3a9320bf50a73a232dd90091bd63
27da0b71464880fb63288deabd5e66fe0170f360f12d1cbd4c
edd8b7186bb01b9e291389012c66e3878035c76448ea6fa3db
fce77b183a2e0f9f75fae083b7d0d145aba54614fa3ec7ea95
9fea6fee178736a60e4e3d296445165b755f07eb6675632182
10e05caa6ee5c1330886216f49d8ab4a9810e7d1abe984c75e
d7b8e57e857656ee6499841e68990049c3dee97f56769e995f
4ca281c48df55717ee7df968cc9eaf99275933e861be217f28
56aba32193a01277286b1a7655b2ad9587555a037a72fab4f2
21e0951ab500757705d9fde9318fa9ac90dda5a5be4fd6bec3
c4ae6f4bbeacc1cbe0dd6804a97fe31fb49056e2dcaa691713
5df6a48ebe4ccc0cc89116949e47110fd61b542e0441d5bc31
083550eee10da5c12838203ef7c44507a2bcb431e071d5a4d0
0d486dba9f53da15587189a093e4fd8fb8cc54d4c0a54e57b0
806deeda2bfa2051137784dce66543ad485cb33cd59431c1a8
eb8020a8f19febfcac83d4c9386c6f6632b7c39895245510ab
f133c6eb0e02764687fef425d94c3e106d90f4da9d377ebea2
f36d08c3003c87a188f6c7de1ec3bbafb47689fe2d1d23dc9a
44fbf4b02db8e13a9514623e0b5bcd7cc5a39de2a2c0b43278
e0a6065ec285678ada29b97c968e87bfc1f076a45fea01f60a
e45a95ae2509da4e20f905f451c36d8a2f9e81777205f778b0
4fae2ca0989603bd1b4e43024aecdeb60b145691ef6778c03f
89a050a871bd7a826091cdbbc3d1543c535fcb4b5d69120bd4
a3798b29651686fb081db8bf6eb73217b971178f190e07c4c7
2a1b17332b53449778328d0f0ee9ad3c1a191850afe914c10e
a80ac05334359aee4ec3365be5a03f790deec8885042a116ae
8e4e61d6635431216b7df7b2e19892c3afe20eecd4c0714c90
90735635bc15649262497ba3cfc7b60b4273033804cc1aa414
fe5f4ada139fc4f14d79a880b533160c56f9e0f4b2a9c9a4b1
16c0d3255a0dd84d09b19dd7b33fb799d3197c16f575ebcabc
1891b3c027370b1be765c8ed39e41af797b3e5d97f4ae8b9e1
ac00df0d0db9ef7dc1ab8cf80f986a1982f725bf56d45108c4
ccb6df751e6a25cfeaab8cebd845e3550d0840e6711b4c59f0
159dc948098f46e7a65b92f5e1a41093494341323d508eadd9
