c13d0cd2e70c44cd0e72d34b62e69d6717589b7c732266c227
ba531c20dacd986faf6a5c7c331c2cc23636333985490f5c88
ed740d53e86a03a138f446ff53d563e59379500559e02819df
f00902906181405d24fac4b3a5bb6935a3e508488459c1102e
9b0f335788cbef9d6e576d3b315fdf684ae68b608872ec4f6a
ae06e9bca072e2c8fb765c2585244bfe2356defb05a2fc69b8
072d1150820f16a179d81e7238cb30f131be40940927711515
70c5aa6e65d3aba6b413fee215cb04c908e75614350039720b
149513dc90aa0a2613a4b7c7ec6209183ddd30911102485461
160edf5f1e1b51d0cda4ee4a71d936447b1bd802d5a8487f1f
8430e463aa67ae51f91050d3a77736abd129c0dbe5d6fb295e
85606d30c7ffda5433b288b51e849dec7e603e6e5801aaec00
45ab7c742f40ae8c46375f254d4fb4eac7117ed220ddabc369
644f032a212cbf7a02861a0423b95aea3597848918937e1952
b0b5d4fd6fb8a4c5e5a9e4ebec5ba7f169f62960e5f017d71f
5829f829187b72a9eeb364b394cd17227c4fa569a9465963b4
10279801292ca87ec4a75a44985859b8cb4de7a064ef6d850e
cea767bb58fea9a738fe2691435f41b5a869c8658c59929931
b230d49a38006e0b1350987d49dd8b2e8e3193b90a3c9f788c
1b82754be12f7436c979005b4ff67b0f995d3b68ddca4a16ab
3bca9d2287def713d654b7bb3b23af0e2e39996d9bb1d0fc96
e26bd371aaf1fee0c029d75876a26e4b3883728625b4eb335f
dc63ff01693b40d7249f07ac1b233ef78317bd47d44801338f
92e48616ef83d2d7ca8084949527d5902aa4eec321dffcfb96
0dc081c8c8963cdcc5a026a151d468c27ed3b60e5b9530e2a4
a60462f7773f6947700bea332bdc59579a412f91aba7bf4717
255383e4996f68cdfe38b7b1ca32d4e26bd93ff82b170da2e5
ac14d2acb71ad8ddd38913241191916727c6e905d313134d78
60ccf98e777d1b8e133be8bc81b48c21de260beff534a86c0b
f78bdacacbe0596fe4b22d9866baafe2f0e717e8992ccb18a8
70f802121d04eead38c35006496299e81a4669f11fe148022e
f4b77c9c62da8ac66c3459aafbfbcbf8badb0d48ae25391ad2
9cafb8ebeb1378befba4420ededcb3efc8df75a5fd0d7035aa
3ad5ec1bef1a0b9b8b579c1e00690bd256e0c4ebfaab82b706
768dbdae27901f6ec1ebec7cc0af63bd273fe1b1037a4830be
d9e2c3fdd59f77f1c668084a1a647926dbd96f069d96a84a44
f61d9f6cc1b638edfca2d2a71847dd849c9f15b06146ab30a9
75719b398d5ba36a80ebc259920837935b3326b75b16a99a12
86261078d4f57e9deb308ece9159b7b858d195b195b42a3eb6
7d184f2d91d9b970a2756204d0b16697baf7551d15bffc76a3
